(kicad_symbol_lib (version 20211014) (generator kicad_symbol_editor)
  (symbol "EKMC1601111" (pin_names (offset 1.016)) (in_bom yes) (on_board yes)
    (property "Reference" "U" (id 0) (at 0 5.08 0)
      (effects (font (size 1.27 1.27)) (justify left))
    )
    (property "Value" "EKMC1601111" (id 1) (at 0 7.62 0)
      (effects (font (size 1.27 1.27)) (justify left))
    )
    (property "Footprint" "User:Panasonic-EKMC1601111-0" (id 2) (at 0 10.16 0)
      (effects (font (size 1.27 1.27)) (justify left) hide)
    )
    (property "Datasheet" "https://upverter.com/datasheet/08257041b259bfb866b24d8a71eb3fd58ddfaa35.pdf" (id 3) (at 0 12.7 0)
      (effects (font (size 1.27 1.27)) (justify left) hide)
    )
    (property "Sensor Type" "Motion, Pyroelectric, PIR (Passive Infrared)" (id 4) (at 0 15.24 0)
      (effects (font (size 1.27 1.27)) (justify left) hide)
    )
    (property "category" "IC" (id 5) (at 0 17.78 0)
      (effects (font (size 1.27 1.27)) (justify left) hide)
    )
    (property "category 1136dc3c28f0caf1" "Motion" (id 6) (at 0 20.32 0)
      (effects (font (size 1.27 1.27)) (justify left) hide)
    )
    (property "category 6b95a69f5f75b052" "Sensors and Accessories" (id 7) (at 0 22.86 0)
      (effects (font (size 1.27 1.27)) (justify left) hide)
    )
    (property "category db391633e8f300fe" "Industrial Control" (id 8) (at 0 25.4 0)
      (effects (font (size 1.27 1.27)) (justify left) hide)
    )
    (property "digikey description" "SENSOR MOTION PIR 170UA DGTL WHT" (id 9) (at 0 27.94 0)
      (effects (font (size 1.27 1.27)) (justify left) hide)
    )
    (property "digikey part number" "255-3074-ND" (id 10) (at 0 30.48 0)
      (effects (font (size 1.27 1.27)) (justify left) hide)
    )
    (property "lead free" "yes" (id 11) (at 0 33.02 0)
      (effects (font (size 1.27 1.27)) (justify left) hide)
    )
    (property "library id" "f5c7d5d33867638d" (id 12) (at 0 35.56 0)
      (effects (font (size 1.27 1.27)) (justify left) hide)
    )
    (property "manufacturer" "Panasonic" (id 13) (at 0 38.1 0)
      (effects (font (size 1.27 1.27)) (justify left) hide)
    )
    (property "mouser part number" "769-EKMC1601111" (id 14) (at 0 40.64 0)
      (effects (font (size 1.27 1.27)) (justify left) hide)
    )
    (property "num pins" "3" (id 15) (at 0 43.18 0)
      (effects (font (size 1.27 1.27)) (justify left) hide)
    )
    (property "octopart part number" "95495d6204bb4a8e" (id 16) (at 0 45.72 0)
      (effects (font (size 1.27 1.27)) (justify left) hide)
    )
    (property "package" "PTH_SENSOR_11MM_DIA" (id 17) (at 0 48.26 0)
      (effects (font (size 1.27 1.27)) (justify left) hide)
    )
    (property "rohs" "yes" (id 18) (at 0 50.8 0)
      (effects (font (size 1.27 1.27)) (justify left) hide)
    )
    (property "temperature range high" "+60 °C" (id 19) (at 0 53.34 0)
      (effects (font (size 1.27 1.27)) (justify left) hide)
    )
    (property "temperature range low" "-20 °C" (id 20) (at 0 55.88 0)
      (effects (font (size 1.27 1.27)) (justify left) hide)
    )
    (property "voltage" "3 V ~{} 6 V" (id 21) (at 0 58.42 0)
      (effects (font (size 1.27 1.27)) (justify left) hide)
    )
    (property "ki_description" "EKMC1601111" (id 22) (at 0 0 0)
      (effects (font (size 1.27 1.27)) hide)
    )
    (symbol "EKMC1601111_1_1"
      (rectangle (start 5.08 2.54) (end 22.86 -7.62)
        (stroke (width 0) (type default) (color 0 0 0 0))
        (fill (type background))
      )
      (pin power_in line (at 2.54 0 0) (length 2.54)
        (name "VDD" (effects (font (size 1.016 1.016))))
        (number "1" (effects (font (size 1.016 1.016))))
      )
      (pin output line (at 25.4 0 180) (length 2.54)
        (name "OUT" (effects (font (size 1.016 1.016))))
        (number "2" (effects (font (size 1.016 1.016))))
      )
      (pin power_in line (at 25.4 -5.08 180) (length 2.54)
        (name "GND" (effects (font (size 1.016 1.016))))
        (number "3" (effects (font (size 1.016 1.016))))
      )
    )
  )
)
