(module ON_Semiconductor-318-08-01_2018-AS-IPC_A (layer F.Cu) (tedit 5F043B78)
(fp_line (start -0.6500000000 1.4500000000) (end -0.6500000000 -1.4500000000) (layer F.Fab) (width 0.15))
(fp_line (start -0.6500000000 -1.4500000000) (end 0.6500000000 -1.4500000000) (layer F.Fab) (width 0.15))
(fp_line (start 0.6500000000 -1.4500000000) (end 0.6500000000 1.4500000000) (layer F.Fab) (width 0.15))
(fp_line (start 0.6500000000 1.4500000000) (end -0.6500000000 1.4500000000) (layer F.Fab) (width 0.15))
(fp_line (start 2.2973050000 -1.8750000000) (end 2.2973050000 -1.8750000000) (layer F.CrtYd) (width 0.15))
(fp_line (start 2.2973050000 -1.8750000000) (end -2.2973030000 -1.8750000000) (layer F.CrtYd) (width 0.15))
(fp_line (start -2.2973030000 -1.8750000000) (end -2.2973030000 1.8750000000) (layer F.CrtYd) (width 0.15))
(fp_line (start -2.2973030000 1.8750000000) (end 2.2973050000 1.8750000000) (layer F.CrtYd) (width 0.15))
(fp_line (start 2.2973050000 1.8750000000) (end 2.2973050000 -1.8750000000) (layer F.CrtYd) (width 0.15))
(fp_text reference REF** (at -2.4723040000 -2.6750000000 0.0000000000) (layer F.SilkS) (effects (justify left) (font (size 1.0 1.0) (thickness 0.15))))
(fp_line (start 0.3269310000 -1.4500000000) (end 0.6500000000 -1.4500000000) (layer F.SilkS) (width 0.15))
(fp_line (start 0.6500000000 1.4500000000) (end 0.6500000000 0.6839930000) (layer F.SilkS) (width 0.15))
(fp_line (start 0.6500000000 -0.6839930000) (end 0.6500000000 -1.4500000000) (layer F.SilkS) (width 0.15))
(fp_line (start 0.3269310000 1.4500000000) (end 0.6500000000 1.4500000000) (layer F.SilkS) (width 0.15))
(fp_line (start -0.6500000000 0.2660070000) (end -0.6500000000 -0.2660070000) (layer F.SilkS) (width 0.15))
(pad 1 smd rect (at -0.9601865000 -0.9500000000 )(size 1.8242350000 0.6179860000)(layers F.Mask F.Paste F.Cu))
(pad 2 smd roundrect (at -0.9601865000 0.9500000000 )(size 1.8242350000 0.6179860000)(roundrect_rratio 1.0000000000)(layers F.Mask F.Paste F.Cu))
(pad 3 smd roundrect (at 0.9601875000 0.0000000000 )(size 1.8242350000 0.6179860000)(roundrect_rratio 1.0000000000)(layers F.Mask F.Paste F.Cu))
(model eec.models/ON_Semiconductor_-_BCV27.step
      (at (xyz 0.0000000000 0.0000000000 0.0000000000))
      (rotate (xyz 0.0000000000 0.0000000000 0.0000000000))
      (scale (xyz 1 1 1))
    )
)
