ISO-10303-21;
HEADER;
FILE_DESCRIPTION(('STEP AP214'),'1');
FILE_NAME('EKMC1601111_PAN','2022-01-04T22:24:00',(''),(''),'','','');
FILE_SCHEMA(('AUTOMOTIVE_DESIGN'));
ENDSEC;
DATA;
#1=SHAPE_DEFINITION_REPRESENTATION(#2,#3);
#2=PRODUCT_DEFINITION_SHAPE('',$,#4);
#3=SHAPE_REPRESENTATION('',(#71,#126,#181,#236,#291,#346,#19),#11);
#4=PRODUCT_DEFINITION('design','example product_definition',#6,#5);
#5=PRODUCT_DEFINITION_CONTEXT('3D Mechanical Parts',#10,'design');
#6=PRODUCT_DEFINITION_FORMATION('1.0','first version',#8);
#7=APPLICATION_PROTOCOL_DEFINITION('international standard','automotive_design',2003,#10);
#8=PRODUCT('product','part','',(#9));
#9=PRODUCT_CONTEXT('3D Mechanical Parts',#10,'mechanical');
#10=APPLICATION_CONTEXT('Core Data for Automotive Mechanical Design Process');
#11=(GEOMETRIC_REPRESENTATION_CONTEXT(3) GLOBAL_UNCERTAINTY_ASSIGNED_CONTEXT((#12)) GLOBAL_UNIT_ASSIGNED_CONTEXT((#13,#14,#18)) REPRESENTATION_CONTEXT('ID1','3D'));
#12=UNCERTAINTY_MEASURE_WITH_UNIT(LENGTH_MEASURE(1.E-005),#13,'DISTANCE_ACCURACY_VALUE','Maximum model space distance between geometric entities at asserted connectivities');
#13=(LENGTH_UNIT() NAMED_UNIT(*) SI_UNIT(.MILLI.,.METRE.));
#14=(CONVERSION_BASED_UNIT('degree',#16) NAMED_UNIT(#15) PLANE_ANGLE_UNIT());
#15=DIMENSIONAL_EXPONENTS(0.,0.,0.,0.,0.,0.,0.);
#16=MEASURE_WITH_UNIT(PLANE_ANGLE_MEASURE(0.01745329252),#17);
#17=(NAMED_UNIT(*) PLANE_ANGLE_UNIT() SI_UNIT($,.RADIAN.));
#18=(NAMED_UNIT(*) SI_UNIT($,.STERADIAN.) SOLID_ANGLE_UNIT());
#19=AXIS2_PLACEMENT_3D('',#20,#21,#22);
#20=CARTESIAN_POINT('',(0.0,0.0,0.0));
#21=DIRECTION('',(0.0,0.0,1.0));
#22=DIRECTION('',(1.0,0.0,0.0));
#25=MECHANICAL_DESIGN_GEOMETRIC_PRESENTATION_REPRESENTATION($,(#123,#124,#125,#178,#179,#180,#233,#234,#235,#288,#289,#290,#343,#344,#345,#398,#399,#400),#11);
#26=PRODUCT_CATEGORY_RELATIONSHIP('','',#27,#28);
#27=PRODUCT_CATEGORY('part','');
#28=PRODUCT_RELATED_PRODUCT_CATEGORY('','',(#8));
#34=PRESENTATION_STYLE_ASSIGNMENT((#35,#40));
#35=SURFACE_STYLE_USAGE(.BOTH.,#36);
#36=SURFACE_SIDE_STYLE('',(#37));
#37=SURFACE_STYLE_FILL_AREA(#38);
#38=FILL_AREA_STYLE('',(#39));
#39=FILL_AREA_STYLE_COLOUR('',#41);
#40=CURVE_STYLE('',#42,POSITIVE_LENGTH_MEASURE(0.1),#41);
#41=COLOUR_RGB('Aluminum',0.725,0.725,0.725);
#42=DRAUGHTING_PRE_DEFINED_CURVE_FONT('continuous');
#43=PRESENTATION_STYLE_ASSIGNMENT((#44,#49));
#44=SURFACE_STYLE_USAGE(.BOTH.,#45);
#45=SURFACE_SIDE_STYLE('',(#46));
#46=SURFACE_STYLE_FILL_AREA(#47);
#47=FILL_AREA_STYLE('',(#48));
#48=FILL_AREA_STYLE_COLOUR('',#50);
#49=CURVE_STYLE('',#51,POSITIVE_LENGTH_MEASURE(0.1),#50);
#50=COLOUR_RGB('Black',0.196,0.196,0.196);
#51=DRAUGHTING_PRE_DEFINED_CURVE_FONT('continuous');
#52=PRESENTATION_STYLE_ASSIGNMENT((#53,#58));
#53=SURFACE_STYLE_USAGE(.BOTH.,#54);
#54=SURFACE_SIDE_STYLE('',(#55));
#55=SURFACE_STYLE_FILL_AREA(#56);
#56=FILL_AREA_STYLE('',(#57));
#57=FILL_AREA_STYLE_COLOUR('',#59);
#58=CURVE_STYLE('',#60,POSITIVE_LENGTH_MEASURE(0.1),#59);
#59=COLOUR_RGB('Pin1',0.588,0.588,0.588);
#60=DRAUGHTING_PRE_DEFINED_CURVE_FONT('continuous');
#61=PRESENTATION_STYLE_ASSIGNMENT((#62,#67));
#62=SURFACE_STYLE_USAGE(.BOTH.,#63);
#63=SURFACE_SIDE_STYLE('',(#64));
#64=SURFACE_STYLE_FILL_AREA(#65);
#65=FILL_AREA_STYLE('',(#66));
#66=FILL_AREA_STYLE_COLOUR('',#68);
#67=CURVE_STYLE('',#69,POSITIVE_LENGTH_MEASURE(0.1),#68);
#68=COLOUR_RGB('HeatTab',0.588,0.588,0.588);
#69=DRAUGHTING_PRE_DEFINED_CURVE_FONT('continuous');
#71=MANIFOLD_SOLID_BREP($,#72);
#72=CLOSED_SHELL('',(#73,#74,#75));
#73=ADVANCED_FACE($,(#79,#78),#96,.T.);
#74=ADVANCED_FACE($,(#80),#76,.F.);
#75=ADVANCED_FACE($,(#81),#77,.T.);
#76=PLANE($,#101);
#77=PLANE($,#102);
#78=FACE_BOUND($,#83,.T.);
#79=FACE_OUTER_BOUND($,#82,.T.);
#80=FACE_OUTER_BOUND($,#84,.T.);
#81=FACE_OUTER_BOUND($,#85,.T.);
#82=EDGE_LOOP($,(#92));
#83=EDGE_LOOP($,(#93));
#84=EDGE_LOOP($,(#94));
#85=EDGE_LOOP($,(#95));
#86=CIRCLE($,#99,4.8641);
#87=CIRCLE($,#100,4.8641);
#88=VERTEX_POINT('',#117);
#89=VERTEX_POINT('',#119);
#90=EDGE_CURVE($,#88,#88,#86,.T.);
#91=EDGE_CURVE($,#89,#89,#87,.T.);
#92=ORIENTED_EDGE($,*,*,#90,.F.);
#93=ORIENTED_EDGE($,*,*,#91,.F.);
#94=ORIENTED_EDGE($,*,*,#91,.T.);
#95=ORIENTED_EDGE($,*,*,#90,.T.);
#96=CYLINDRICAL_SURFACE($,#98,4.8641);
#97=AXIS2_PLACEMENT_3D('placement',#115,#103,#104);
#98=AXIS2_PLACEMENT_3D($,#116,#105,#106);
#99=AXIS2_PLACEMENT_3D($,#118,#107,#108);
#100=AXIS2_PLACEMENT_3D($,#120,#109,#110);
#101=AXIS2_PLACEMENT_3D($,#121,#111,#112);
#102=AXIS2_PLACEMENT_3D($,#122,#113,#114);
#103=DIRECTION('axis',(0.,1.,0.));
#104=DIRECTION('refdir',(1.,0.,0.));
#105=DIRECTION('',(0.,0.,1.));
#106=DIRECTION('',(1.,0.,0.));
#107=DIRECTION('',(0.,0.,1.));
#108=DIRECTION('',(1.,0.,0.));
#109=DIRECTION('',(0.,0.,-1.));
#110=DIRECTION('',(1.,0.,0.));
#111=DIRECTION('',(0.,0.,1.));
#112=DIRECTION('',(0.,1.,0.));
#113=DIRECTION('',(0.,0.,1.));
#114=DIRECTION('',(0.,1.,0.));
#115=CARTESIAN_POINT('',(0.,0.,0.));
#116=CARTESIAN_POINT('',(1.796,-1.796,1.44));
#117=CARTESIAN_POINT('',(-3.068,-1.796,14.402));
#118=CARTESIAN_POINT('',(1.796,-1.796,14.402));
#119=CARTESIAN_POINT('',(-3.068,-1.796,1.44));
#120=CARTESIAN_POINT('',(1.796,-1.796,1.44));
#121=CARTESIAN_POINT('',(1.796,-1.796,1.44));
#122=CARTESIAN_POINT('',(1.796,-1.796,14.402));
#123=STYLED_ITEM('color',(#43),#73);
#124=STYLED_ITEM('color',(#43),#74);
#125=STYLED_ITEM('color',(#43),#75);
#126=MANIFOLD_SOLID_BREP($,#127);
#127=CLOSED_SHELL('',(#128,#129,#130));
#128=ADVANCED_FACE($,(#134,#133),#151,.T.);
#129=ADVANCED_FACE($,(#135),#131,.F.);
#130=ADVANCED_FACE($,(#136),#132,.T.);
#131=PLANE($,#156);
#132=PLANE($,#157);
#133=FACE_BOUND($,#138,.T.);
#134=FACE_OUTER_BOUND($,#137,.T.);
#135=FACE_OUTER_BOUND($,#139,.T.);
#136=FACE_OUTER_BOUND($,#140,.T.);
#137=EDGE_LOOP($,(#147));
#138=EDGE_LOOP($,(#148));
#139=EDGE_LOOP($,(#149));
#140=EDGE_LOOP($,(#150));
#141=CIRCLE($,#154,5.4991);
#142=CIRCLE($,#155,5.4991);
#143=VERTEX_POINT('',#172);
#144=VERTEX_POINT('',#174);
#145=EDGE_CURVE($,#143,#143,#141,.T.);
#146=EDGE_CURVE($,#144,#144,#142,.T.);
#147=ORIENTED_EDGE($,*,*,#145,.F.);
#148=ORIENTED_EDGE($,*,*,#146,.F.);
#149=ORIENTED_EDGE($,*,*,#146,.T.);
#150=ORIENTED_EDGE($,*,*,#145,.T.);
#151=CYLINDRICAL_SURFACE($,#153,5.4991);
#152=AXIS2_PLACEMENT_3D('placement',#170,#158,#159);
#153=AXIS2_PLACEMENT_3D($,#171,#160,#161);
#154=AXIS2_PLACEMENT_3D($,#173,#162,#163);
#155=AXIS2_PLACEMENT_3D($,#175,#164,#165);
#156=AXIS2_PLACEMENT_3D($,#176,#166,#167);
#157=AXIS2_PLACEMENT_3D($,#177,#168,#169);
#158=DIRECTION('axis',(0.,1.,0.));
#159=DIRECTION('refdir',(1.,0.,0.));
#160=DIRECTION('',(0.,0.,1.));
#161=DIRECTION('',(1.,0.,0.));
#162=DIRECTION('',(0.,0.,1.));
#163=DIRECTION('',(1.,0.,0.));
#164=DIRECTION('',(0.,0.,-1.));
#165=DIRECTION('',(1.,0.,0.));
#166=DIRECTION('',(0.,0.,1.));
#167=DIRECTION('',(0.,1.,0.));
#168=DIRECTION('',(0.,0.,1.));
#169=DIRECTION('',(0.,1.,0.));
#170=CARTESIAN_POINT('',(0.,0.,0.));
#171=CARTESIAN_POINT('',(1.796,-1.796,0.0));
#172=CARTESIAN_POINT('',(-3.703,-1.796,1.44));
#173=CARTESIAN_POINT('',(1.796,-1.796,1.44));
#174=CARTESIAN_POINT('',(-3.703,-1.796,0.0));
#175=CARTESIAN_POINT('',(1.796,-1.796,0.0));
#176=CARTESIAN_POINT('',(1.796,-1.796,0.0));
#177=CARTESIAN_POINT('',(1.796,-1.796,1.44));
#178=STYLED_ITEM('color',(#43),#128);
#179=STYLED_ITEM('color',(#43),#129);
#180=STYLED_ITEM('color',(#43),#130);
#181=MANIFOLD_SOLID_BREP($,#182);
#182=CLOSED_SHELL('',(#183,#184,#185));
#183=ADVANCED_FACE($,(#189,#188),#206,.T.);
#184=ADVANCED_FACE($,(#190),#186,.F.);
#185=ADVANCED_FACE($,(#191),#187,.T.);
#186=PLANE($,#211);
#187=PLANE($,#212);
#188=FACE_BOUND($,#193,.T.);
#189=FACE_OUTER_BOUND($,#192,.T.);
#190=FACE_OUTER_BOUND($,#194,.T.);
#191=FACE_OUTER_BOUND($,#195,.T.);
#192=EDGE_LOOP($,(#202));
#193=EDGE_LOOP($,(#203));
#194=EDGE_LOOP($,(#204));
#195=EDGE_LOOP($,(#205));
#196=CIRCLE($,#209,0.3556);
#197=CIRCLE($,#210,0.3556);
#198=VERTEX_POINT('',#227);
#199=VERTEX_POINT('',#229);
#200=EDGE_CURVE($,#198,#198,#196,.T.);
#201=EDGE_CURVE($,#199,#199,#197,.T.);
#202=ORIENTED_EDGE($,*,*,#200,.F.);
#203=ORIENTED_EDGE($,*,*,#201,.F.);
#204=ORIENTED_EDGE($,*,*,#201,.T.);
#205=ORIENTED_EDGE($,*,*,#200,.T.);
#206=CYLINDRICAL_SURFACE($,#208,0.3556);
#207=AXIS2_PLACEMENT_3D('placement',#225,#213,#214);
#208=AXIS2_PLACEMENT_3D($,#226,#215,#216);
#209=AXIS2_PLACEMENT_3D($,#228,#217,#218);
#210=AXIS2_PLACEMENT_3D($,#230,#219,#220);
#211=AXIS2_PLACEMENT_3D($,#231,#221,#222);
#212=AXIS2_PLACEMENT_3D($,#232,#223,#224);
#213=DIRECTION('axis',(0.,1.,0.));
#214=DIRECTION('refdir',(1.,0.,0.));
#215=DIRECTION('',(0.,0.,1.));
#216=DIRECTION('',(1.,0.,0.));
#217=DIRECTION('',(0.,0.,1.));
#218=DIRECTION('',(1.,0.,0.));
#219=DIRECTION('',(0.,0.,-1.));
#220=DIRECTION('',(1.,0.,0.));
#221=DIRECTION('',(0.,0.,1.));
#222=DIRECTION('',(0.,1.,0.));
#223=DIRECTION('',(0.,0.,1.));
#224=DIRECTION('',(0.,1.,0.));
#225=CARTESIAN_POINT('',(0.,0.,0.));
#226=CARTESIAN_POINT('',(0.0,0.0,-3.81));
#227=CARTESIAN_POINT('',(-0.356,0.0,0.0));
#228=CARTESIAN_POINT('',(0.0,0.0,0.0));
#229=CARTESIAN_POINT('',(-0.356,0.0,-3.81));
#230=CARTESIAN_POINT('',(0.0,0.0,-3.81));
#231=CARTESIAN_POINT('',(0.0,0.0,-3.81));
#232=CARTESIAN_POINT('',(0.0,0.0,0.0));
#233=STYLED_ITEM('color',(#34),#183);
#234=STYLED_ITEM('color',(#34),#184);
#235=STYLED_ITEM('color',(#34),#185);
#236=MANIFOLD_SOLID_BREP($,#237);
#237=CLOSED_SHELL('',(#238,#239,#240));
#238=ADVANCED_FACE($,(#244,#243),#261,.T.);
#239=ADVANCED_FACE($,(#245),#241,.F.);
#240=ADVANCED_FACE($,(#246),#242,.T.);
#241=PLANE($,#266);
#242=PLANE($,#267);
#243=FACE_BOUND($,#248,.T.);
#244=FACE_OUTER_BOUND($,#247,.T.);
#245=FACE_OUTER_BOUND($,#249,.T.);
#246=FACE_OUTER_BOUND($,#250,.T.);
#247=EDGE_LOOP($,(#257));
#248=EDGE_LOOP($,(#258));
#249=EDGE_LOOP($,(#259));
#250=EDGE_LOOP($,(#260));
#251=CIRCLE($,#264,0.3556);
#252=CIRCLE($,#265,0.3556);
#253=VERTEX_POINT('',#282);
#254=VERTEX_POINT('',#284);
#255=EDGE_CURVE($,#253,#253,#251,.T.);
#256=EDGE_CURVE($,#254,#254,#252,.T.);
#257=ORIENTED_EDGE($,*,*,#255,.F.);
#258=ORIENTED_EDGE($,*,*,#256,.F.);
#259=ORIENTED_EDGE($,*,*,#256,.T.);
#260=ORIENTED_EDGE($,*,*,#255,.T.);
#261=CYLINDRICAL_SURFACE($,#263,0.3556);
#262=AXIS2_PLACEMENT_3D('placement',#280,#268,#269);
#263=AXIS2_PLACEMENT_3D($,#281,#270,#271);
#264=AXIS2_PLACEMENT_3D($,#283,#272,#273);
#265=AXIS2_PLACEMENT_3D($,#285,#274,#275);
#266=AXIS2_PLACEMENT_3D($,#286,#276,#277);
#267=AXIS2_PLACEMENT_3D($,#287,#278,#279);
#268=DIRECTION('axis',(0.,1.,0.));
#269=DIRECTION('refdir',(1.,0.,0.));
#270=DIRECTION('',(0.,0.,1.));
#271=DIRECTION('',(1.,0.,0.));
#272=DIRECTION('',(0.,0.,1.));
#273=DIRECTION('',(1.,0.,0.));
#274=DIRECTION('',(0.,0.,-1.));
#275=DIRECTION('',(1.,0.,0.));
#276=DIRECTION('',(0.,0.,1.));
#277=DIRECTION('',(0.,1.,0.));
#278=DIRECTION('',(0.,0.,1.));
#279=DIRECTION('',(0.,1.,0.));
#280=CARTESIAN_POINT('',(0.,0.,0.));
#281=CARTESIAN_POINT('',(0.0,-3.592,-3.81));
#282=CARTESIAN_POINT('',(-0.356,-3.592,0.0));
#283=CARTESIAN_POINT('',(0.0,-3.592,0.0));
#284=CARTESIAN_POINT('',(-0.356,-3.592,-3.81));
#285=CARTESIAN_POINT('',(0.0,-3.592,-3.81));
#286=CARTESIAN_POINT('',(0.0,-3.592,-3.81));
#287=CARTESIAN_POINT('',(0.0,-3.592,0.0));
#288=STYLED_ITEM('color',(#34),#238);
#289=STYLED_ITEM('color',(#34),#239);
#290=STYLED_ITEM('color',(#34),#240);
#291=MANIFOLD_SOLID_BREP($,#292);
#292=CLOSED_SHELL('',(#293,#294,#295));
#293=ADVANCED_FACE($,(#299,#298),#316,.T.);
#294=ADVANCED_FACE($,(#300),#296,.F.);
#295=ADVANCED_FACE($,(#301),#297,.T.);
#296=PLANE($,#321);
#297=PLANE($,#322);
#298=FACE_BOUND($,#303,.T.);
#299=FACE_OUTER_BOUND($,#302,.T.);
#300=FACE_OUTER_BOUND($,#304,.T.);
#301=FACE_OUTER_BOUND($,#305,.T.);
#302=EDGE_LOOP($,(#312));
#303=EDGE_LOOP($,(#313));
#304=EDGE_LOOP($,(#314));
#305=EDGE_LOOP($,(#315));
#306=CIRCLE($,#319,0.3556);
#307=CIRCLE($,#320,0.3556);
#308=VERTEX_POINT('',#337);
#309=VERTEX_POINT('',#339);
#310=EDGE_CURVE($,#308,#308,#306,.T.);
#311=EDGE_CURVE($,#309,#309,#307,.T.);
#312=ORIENTED_EDGE($,*,*,#310,.F.);
#313=ORIENTED_EDGE($,*,*,#311,.F.);
#314=ORIENTED_EDGE($,*,*,#311,.T.);
#315=ORIENTED_EDGE($,*,*,#310,.T.);
#316=CYLINDRICAL_SURFACE($,#318,0.3556);
#317=AXIS2_PLACEMENT_3D('placement',#335,#323,#324);
#318=AXIS2_PLACEMENT_3D($,#336,#325,#326);
#319=AXIS2_PLACEMENT_3D($,#338,#327,#328);
#320=AXIS2_PLACEMENT_3D($,#340,#329,#330);
#321=AXIS2_PLACEMENT_3D($,#341,#331,#332);
#322=AXIS2_PLACEMENT_3D($,#342,#333,#334);
#323=DIRECTION('axis',(0.,1.,0.));
#324=DIRECTION('refdir',(1.,0.,0.));
#325=DIRECTION('',(0.,0.,1.));
#326=DIRECTION('',(1.,0.,0.));
#327=DIRECTION('',(0.,0.,1.));
#328=DIRECTION('',(1.,0.,0.));
#329=DIRECTION('',(0.,0.,-1.));
#330=DIRECTION('',(1.,0.,0.));
#331=DIRECTION('',(0.,0.,1.));
#332=DIRECTION('',(0.,1.,0.));
#333=DIRECTION('',(0.,0.,1.));
#334=DIRECTION('',(0.,1.,0.));
#335=CARTESIAN_POINT('',(0.,0.,0.));
#336=CARTESIAN_POINT('',(3.592,-3.592,-3.81));
#337=CARTESIAN_POINT('',(3.237,-3.592,0.0));
#338=CARTESIAN_POINT('',(3.592,-3.592,0.0));
#339=CARTESIAN_POINT('',(3.237,-3.592,-3.81));
#340=CARTESIAN_POINT('',(3.592,-3.592,-3.81));
#341=CARTESIAN_POINT('',(3.592,-3.592,-3.81));
#342=CARTESIAN_POINT('',(3.592,-3.592,0.0));
#343=STYLED_ITEM('color',(#34),#293);
#344=STYLED_ITEM('color',(#34),#294);
#345=STYLED_ITEM('color',(#34),#295);
#346=MANIFOLD_SOLID_BREP($,#347);
#347=CLOSED_SHELL('',(#348,#349,#350));
#348=ADVANCED_FACE($,(#354,#353),#371,.T.);
#349=ADVANCED_FACE($,(#355),#351,.F.);
#350=ADVANCED_FACE($,(#356),#352,.T.);
#351=PLANE($,#376);
#352=PLANE($,#377);
#353=FACE_BOUND($,#358,.T.);
#354=FACE_OUTER_BOUND($,#357,.T.);
#355=FACE_OUTER_BOUND($,#359,.T.);
#356=FACE_OUTER_BOUND($,#360,.T.);
#357=EDGE_LOOP($,(#367));
#358=EDGE_LOOP($,(#368));
#359=EDGE_LOOP($,(#369));
#360=EDGE_LOOP($,(#370));
#361=CIRCLE($,#374,0.3556);
#362=CIRCLE($,#375,0.3556);
#363=VERTEX_POINT('',#392);
#364=VERTEX_POINT('',#394);
#365=EDGE_CURVE($,#363,#363,#361,.T.);
#366=EDGE_CURVE($,#364,#364,#362,.T.);
#367=ORIENTED_EDGE($,*,*,#365,.F.);
#368=ORIENTED_EDGE($,*,*,#366,.F.);
#369=ORIENTED_EDGE($,*,*,#366,.T.);
#370=ORIENTED_EDGE($,*,*,#365,.T.);
#371=CYLINDRICAL_SURFACE($,#373,0.3556);
#372=AXIS2_PLACEMENT_3D('placement',#390,#378,#379);
#373=AXIS2_PLACEMENT_3D($,#391,#380,#381);
#374=AXIS2_PLACEMENT_3D($,#393,#382,#383);
#375=AXIS2_PLACEMENT_3D($,#395,#384,#385);
#376=AXIS2_PLACEMENT_3D($,#396,#386,#387);
#377=AXIS2_PLACEMENT_3D($,#397,#388,#389);
#378=DIRECTION('axis',(0.,1.,0.));
#379=DIRECTION('refdir',(1.,0.,0.));
#380=DIRECTION('',(0.,0.,1.));
#381=DIRECTION('',(1.,0.,0.));
#382=DIRECTION('',(0.,0.,1.));
#383=DIRECTION('',(1.,0.,0.));
#384=DIRECTION('',(0.,0.,-1.));
#385=DIRECTION('',(1.,0.,0.));
#386=DIRECTION('',(0.,0.,1.));
#387=DIRECTION('',(0.,1.,0.));
#388=DIRECTION('',(0.,0.,1.));
#389=DIRECTION('',(0.,1.,0.));
#390=CARTESIAN_POINT('',(0.,0.,0.));
#391=CARTESIAN_POINT('',(3.592,0.0,-3.81));
#392=CARTESIAN_POINT('',(3.237,0.0,0.0));
#393=CARTESIAN_POINT('',(3.592,0.0,0.0));
#394=CARTESIAN_POINT('',(3.237,0.0,-3.81));
#395=CARTESIAN_POINT('',(3.592,0.0,-3.81));
#396=CARTESIAN_POINT('',(3.592,0.0,-3.81));
#397=CARTESIAN_POINT('',(3.592,0.0,0.0));
#398=STYLED_ITEM('color',(#34),#348);
#399=STYLED_ITEM('color',(#34),#349);
#400=STYLED_ITEM('color',(#34),#350);
ENDSEC;
END-ISO-10303-21;
